; ModuleID = '../../benchmark/benchmark_2T.c'
source_filename = "../../benchmark/benchmark_2T.c"
target datalayout = "e-m:e-i64:64-f80:128-n8:16:32:64-S128"
target triple = "x86_64-pc-linux-gnu"

%union.pthread_attr_t = type { i64, [48 x i8] }
%struct.cpu_set_t = type { [16 x i64] }

@B = global [512 x i32] [i32 5, i32 5, i32 5, i32 5, i32 5, i32 5, i32 5, i32 5, i32 5, i32 5, i32 5, i32 5, i32 5, i32 5, i32 5, i32 5, i32 5, i32 5, i32 5, i32 5, i32 5, i32 5, i32 5, i32 5, i32 5, i32 5, i32 5, i32 5, i32 5, i32 5, i32 5, i32 5, i32 5, i32 5, i32 5, i32 5, i32 5, i32 5, i32 5, i32 5, i32 5, i32 5, i32 5, i32 5, i32 5, i32 5, i32 5, i32 5, i32 5, i32 5, i32 5, i32 5, i32 5, i32 5, i32 5, i32 5, i32 5, i32 5, i32 5, i32 5, i32 5, i32 5, i32 5, i32 5, i32 5, i32 5, i32 5, i32 5, i32 5, i32 5, i32 5, i32 5, i32 5, i32 5, i32 5, i32 5, i32 5, i32 5, i32 5, i32 5, i32 5, i32 5, i32 5, i32 5, i32 5, i32 5, i32 5, i32 5, i32 5, i32 5, i32 5, i32 5, i32 5, i32 5, i32 5, i32 5, i32 5, i32 5, i32 5, i32 5, i32 5, i32 5, i32 5, i32 5, i32 5, i32 5, i32 5, i32 5, i32 5, i32 5, i32 5, i32 5, i32 5, i32 5, i32 5, i32 5, i32 5, i32 5, i32 5, i32 5, i32 5, i32 5, i32 5, i32 5, i32 5, i32 5, i32 5, i32 5, i32 5, i32 5, i32 5, i32 5, i32 5, i32 5, i32 5, i32 5, i32 5, i32 5, i32 5, i32 5, i32 5, i32 5, i32 5, i32 5, i32 5, i32 5, i32 5, i32 5, i32 5, i32 5, i32 5, i32 5, i32 5, i32 5, i32 5, i32 5, i32 5, i32 5, i32 5, i32 5, i32 5, i32 5, i32 5, i32 5, i32 5, i32 5, i32 5, i32 5, i32 5, i32 5, i32 5, i32 5, i32 5, i32 5, i32 5, i32 5, i32 5, i32 5, i32 5, i32 5, i32 5, i32 5, i32 5, i32 5, i32 5, i32 5, i32 5, i32 5, i32 5, i32 5, i32 5, i32 5, i32 5, i32 5, i32 5, i32 5, i32 5, i32 5, i32 5, i32 5, i32 5, i32 5, i32 5, i32 5, i32 5, i32 5, i32 5, i32 5, i32 5, i32 5, i32 5, i32 5, i32 5, i32 5, i32 5, i32 5, i32 5, i32 5, i32 5, i32 5, i32 5, i32 5, i32 5, i32 5, i32 5, i32 5, i32 5, i32 5, i32 5, i32 5, i32 5, i32 5, i32 5, i32 5, i32 5, i32 5, i32 5, i32 5, i32 5, i32 5, i32 5, i32 5, i32 5, i32 5, i32 5, i32 5, i32 5, i32 5, i32 5, i32 5, i32 5, i32 5, i32 5, i32 5, i32 5, i32 5, i32 5, i32 5, i32 5, i32 5, i32 5, i32 5, i32 5, i32 5, i32 5, i32 5, i32 5, i32 5, i32 5, i32 5, i32 5, i32 5, i32 5, i32 5, i32 5, i32 5, i32 5, i32 5, i32 5, i32 5, i32 5, i32 5, i32 5, i32 5, i32 5, i32 5, i32 5, i32 5, i32 5, i32 5, i32 5, i32 5, i32 5, i32 5, i32 5, i32 5, i32 5, i32 5, i32 5, i32 5, i32 5, i32 5, i32 5, i32 5, i32 5, i32 5, i32 5, i32 5, i32 5, i32 5, i32 5, i32 5, i32 5, i32 5, i32 5, i32 5, i32 5, i32 5, i32 5, i32 5, i32 5, i32 5, i32 5, i32 5, i32 5, i32 5, i32 5, i32 5, i32 5, i32 5, i32 5, i32 5, i32 5, i32 5, i32 5, i32 5, i32 5, i32 5, i32 5, i32 5, i32 5, i32 5, i32 5, i32 5, i32 5, i32 5, i32 5, i32 5, i32 5, i32 5, i32 5, i32 5, i32 5, i32 5, i32 5, i32 5, i32 5, i32 5, i32 5, i32 5, i32 5, i32 5, i32 5, i32 5, i32 5, i32 5, i32 5, i32 5, i32 5, i32 5, i32 5, i32 5, i32 5, i32 5, i32 5, i32 5, i32 5, i32 5, i32 5, i32 5, i32 5, i32 5, i32 5, i32 5, i32 5, i32 5, i32 5, i32 5, i32 5, i32 5, i32 5, i32 5, i32 5, i32 5, i32 5, i32 5, i32 5, i32 5, i32 5, i32 5, i32 5, i32 5, i32 5, i32 5, i32 5, i32 5, i32 5, i32 5, i32 5, i32 5, i32 5, i32 5, i32 5, i32 5, i32 5, i32 5, i32 5, i32 5, i32 5, i32 5, i32 5, i32 5, i32 5, i32 5, i32 5, i32 5, i32 5, i32 5, i32 5, i32 5, i32 5, i32 5, i32 5, i32 5, i32 5, i32 5, i32 5, i32 5, i32 5, i32 5, i32 5, i32 5, i32 5, i32 5, i32 5, i32 5, i32 5, i32 5, i32 5, i32 5, i32 5, i32 5, i32 5, i32 5, i32 5, i32 5, i32 5, i32 5, i32 5, i32 5, i32 5, i32 5, i32 5, i32 5, i32 5, i32 5, i32 5, i32 5, i32 5, i32 5, i32 5, i32 5, i32 5, i32 5, i32 5, i32 5, i32 5, i32 5, i32 5, i32 5, i32 5, i32 5, i32 5, i32 5, i32 5, i32 5, i32 5, i32 5, i32 5, i32 5, i32 5, i32 5, i32 5, i32 5, i32 5, i32 5, i32 5, i32 5, i32 5, i32 5, i32 5, i32 5, i32 5, i32 5, i32 5, i32 5, i32 5, i32 5, i32 5, i32 5, i32 5, i32 5], align 16
@C = global [512 x i32] [i32 1, i32 1, i32 1, i32 1, i32 1, i32 1, i32 1, i32 1, i32 1, i32 1, i32 1, i32 1, i32 1, i32 1, i32 1, i32 1, i32 1, i32 1, i32 1, i32 1, i32 1, i32 1, i32 1, i32 1, i32 1, i32 1, i32 1, i32 1, i32 1, i32 1, i32 1, i32 1, i32 1, i32 1, i32 1, i32 1, i32 1, i32 1, i32 1, i32 1, i32 1, i32 1, i32 1, i32 1, i32 1, i32 1, i32 1, i32 1, i32 1, i32 1, i32 1, i32 1, i32 1, i32 1, i32 1, i32 1, i32 1, i32 1, i32 1, i32 1, i32 1, i32 1, i32 1, i32 1, i32 1, i32 1, i32 1, i32 1, i32 1, i32 1, i32 1, i32 1, i32 1, i32 1, i32 1, i32 1, i32 1, i32 1, i32 1, i32 1, i32 1, i32 1, i32 1, i32 1, i32 1, i32 1, i32 1, i32 1, i32 1, i32 1, i32 1, i32 1, i32 1, i32 1, i32 1, i32 1, i32 1, i32 1, i32 1, i32 1, i32 1, i32 1, i32 1, i32 1, i32 1, i32 1, i32 1, i32 1, i32 1, i32 1, i32 1, i32 1, i32 1, i32 1, i32 1, i32 1, i32 1, i32 1, i32 1, i32 1, i32 1, i32 1, i32 1, i32 1, i32 1, i32 1, i32 1, i32 1, i32 1, i32 1, i32 1, i32 1, i32 1, i32 1, i32 1, i32 1, i32 1, i32 1, i32 1, i32 1, i32 1, i32 1, i32 1, i32 1, i32 1, i32 1, i32 1, i32 1, i32 1, i32 1, i32 1, i32 1, i32 1, i32 1, i32 1, i32 1, i32 1, i32 1, i32 1, i32 1, i32 1, i32 1, i32 1, i32 1, i32 1, i32 1, i32 1, i32 1, i32 1, i32 1, i32 1, i32 1, i32 1, i32 1, i32 1, i32 1, i32 1, i32 1, i32 1, i32 1, i32 1, i32 1, i32 1, i32 1, i32 1, i32 1, i32 1, i32 1, i32 1, i32 1, i32 1, i32 1, i32 1, i32 1, i32 1, i32 1, i32 1, i32 1, i32 1, i32 1, i32 1, i32 1, i32 1, i32 1, i32 1, i32 1, i32 1, i32 1, i32 1, i32 1, i32 1, i32 1, i32 1, i32 1, i32 1, i32 1, i32 1, i32 1, i32 1, i32 1, i32 1, i32 1, i32 1, i32 1, i32 1, i32 1, i32 1, i32 1, i32 1, i32 1, i32 1, i32 1, i32 1, i32 1, i32 1, i32 1, i32 1, i32 1, i32 1, i32 1, i32 1, i32 1, i32 1, i32 1, i32 1, i32 1, i32 1, i32 1, i32 1, i32 1, i32 1, i32 1, i32 1, i32 1, i32 1, i32 1, i32 1, i32 1, i32 1, i32 1, i32 1, i32 1, i32 1, i32 1, i32 1, i32 1, i32 1, i32 1, i32 1, i32 1, i32 1, i32 1, i32 1, i32 1, i32 1, i32 1, i32 1, i32 1, i32 1, i32 1, i32 1, i32 1, i32 1, i32 1, i32 1, i32 1, i32 1, i32 1, i32 1, i32 1, i32 1, i32 1, i32 1, i32 1, i32 1, i32 1, i32 1, i32 1, i32 1, i32 1, i32 1, i32 1, i32 1, i32 1, i32 1, i32 1, i32 1, i32 1, i32 1, i32 1, i32 1, i32 1, i32 1, i32 1, i32 1, i32 1, i32 1, i32 1, i32 1, i32 1, i32 1, i32 1, i32 1, i32 1, i32 1, i32 1, i32 1, i32 1, i32 1, i32 1, i32 1, i32 1, i32 1, i32 1, i32 1, i32 1, i32 1, i32 1, i32 1, i32 1, i32 1, i32 1, i32 1, i32 1, i32 1, i32 1, i32 1, i32 1, i32 1, i32 1, i32 1, i32 1, i32 1, i32 1, i32 1, i32 1, i32 1, i32 1, i32 1, i32 1, i32 1, i32 1, i32 1, i32 1, i32 1, i32 1, i32 1, i32 1, i32 1, i32 1, i32 1, i32 1, i32 1, i32 1, i32 1, i32 1, i32 1, i32 1, i32 1, i32 1, i32 1, i32 1, i32 1, i32 1, i32 1, i32 1, i32 1, i32 1, i32 1, i32 1, i32 1, i32 1, i32 1, i32 1, i32 1, i32 1, i32 1, i32 1, i32 1, i32 1, i32 1, i32 1, i32 1, i32 1, i32 1, i32 1, i32 1, i32 1, i32 1, i32 1, i32 1, i32 1, i32 1, i32 1, i32 1, i32 1, i32 1, i32 1, i32 1, i32 1, i32 1, i32 1, i32 1, i32 1, i32 1, i32 1, i32 1, i32 1, i32 1, i32 1, i32 1, i32 1, i32 1, i32 1, i32 1, i32 1, i32 1, i32 1, i32 1, i32 1, i32 1, i32 1, i32 1, i32 1, i32 1, i32 1, i32 1, i32 1, i32 1, i32 1, i32 1, i32 1, i32 1, i32 1, i32 1, i32 1, i32 1, i32 1, i32 1, i32 1, i32 1, i32 1, i32 1, i32 1, i32 1, i32 1, i32 1, i32 1, i32 1, i32 1, i32 1, i32 1, i32 1, i32 1, i32 1, i32 1, i32 1, i32 1, i32 1, i32 1, i32 1, i32 1, i32 1, i32 1, i32 1, i32 1, i32 1, i32 1, i32 1, i32 1, i32 1, i32 1, i32 1, i32 1, i32 1, i32 1, i32 1, i32 1, i32 1, i32 1, i32 1, i32 1, i32 1, i32 1, i32 1, i32 1, i32 1, i32 1, i32 1, i32 1, i32 1, i32 1], align 16
@A = common global [512 x i32] zeroinitializer, align 16
@.str = private unnamed_addr constant [14 x i8] c"Main Core %d\0A\00", align 1
@.str.1 = private unnamed_addr constant [19 x i8] c"Creating Thread 0\0A\00", align 1
@.str.2 = private unnamed_addr constant [19 x i8] c"Creating Thread 1\0A\00", align 1
@.str.3 = private unnamed_addr constant [13 x i8] c"Result = %d\0A\00", align 1

; Function Attrs: nounwind uwtable
define i8* @Thread_Call1(i8*) #0 {
  %2 = alloca i8*, align 8
  %3 = alloca i8*, align 8
  %4 = alloca i32, align 4
  %5 = alloca i32, align 4
  store i8* %0, i8** %3, align 8, !tbaa !1
  %6 = bitcast i32* %4 to i8*
  call void @llvm.lifetime.start(i64 4, i8* %6) #5
  %7 = load i8*, i8** %3, align 8, !tbaa !1
  %8 = bitcast i8* %7 to i32*
  %9 = load i32, i32* %8, align 4, !tbaa !5
  store i32 %9, i32* %4, align 4, !tbaa !5
  %10 = bitcast i32* %5 to i8*
  call void @llvm.lifetime.start(i64 4, i8* %10) #5
  store i32 0, i32* %5, align 4, !tbaa !5
  br label %11

; <label>:11:                                     ; preds = %29, %1
  %12 = load i32, i32* %5, align 4, !tbaa !5
  %13 = icmp slt i32 %12, 256
  br i1 %13, label %16, label %14

; <label>:14:                                     ; preds = %11
  %15 = bitcast i32* %5 to i8*
  call void @llvm.lifetime.end(i64 4, i8* %15) #5
  br label %32

; <label>:16:                                     ; preds = %11
  %17 = load i32, i32* %5, align 4, !tbaa !5
  %18 = sext i32 %17 to i64
  %19 = getelementptr inbounds [512 x i32], [512 x i32]* @B, i64 0, i64 %18
  %20 = load i32, i32* %19, align 4, !tbaa !5
  %21 = load i32, i32* %5, align 4, !tbaa !5
  %22 = sext i32 %21 to i64
  %23 = getelementptr inbounds [512 x i32], [512 x i32]* @C, i64 0, i64 %22
  %24 = load i32, i32* %23, align 4, !tbaa !5
  %25 = add nsw i32 %20, %24
  %26 = load i32, i32* %5, align 4, !tbaa !5
  %27 = sext i32 %26 to i64
  %28 = getelementptr inbounds [512 x i32], [512 x i32]* @A, i64 0, i64 %27
  store i32 %25, i32* %28, align 4, !tbaa !5
  br label %29

; <label>:29:                                     ; preds = %16
  %30 = load i32, i32* %5, align 4, !tbaa !5
  %31 = add nsw i32 %30, 1
  store i32 %31, i32* %5, align 4, !tbaa !5
  br label %11

; <label>:32:                                     ; preds = %14
  call void @pthread_exit(i8* null) #6
  unreachable
                                                  ; No predecessors!
  %34 = load i8*, i8** %2, align 8
  ret i8* %34
}

; Function Attrs: argmemonly nounwind
declare void @llvm.lifetime.start(i64, i8* nocapture) #1

; Function Attrs: argmemonly nounwind
declare void @llvm.lifetime.end(i64, i8* nocapture) #1

; Function Attrs: noreturn
declare void @pthread_exit(i8*) #2

; Function Attrs: nounwind uwtable
define i8* @Thread_Call0(i8*) #0 {
  %2 = alloca i8*, align 8
  %3 = alloca i8*, align 8
  %4 = alloca i32, align 4
  %5 = alloca i32, align 4
  store i8* %0, i8** %3, align 8, !tbaa !1
  %6 = bitcast i32* %4 to i8*
  call void @llvm.lifetime.start(i64 4, i8* %6) #5
  %7 = load i8*, i8** %3, align 8, !tbaa !1
  %8 = bitcast i8* %7 to i32*
  %9 = load i32, i32* %8, align 4, !tbaa !5
  store i32 %9, i32* %4, align 4, !tbaa !5
  %10 = bitcast i32* %5 to i8*
  call void @llvm.lifetime.start(i64 4, i8* %10) #5
  store i32 256, i32* %5, align 4, !tbaa !5
  br label %11

; <label>:11:                                     ; preds = %29, %1
  %12 = load i32, i32* %5, align 4, !tbaa !5
  %13 = icmp slt i32 %12, 512
  br i1 %13, label %16, label %14

; <label>:14:                                     ; preds = %11
  %15 = bitcast i32* %5 to i8*
  call void @llvm.lifetime.end(i64 4, i8* %15) #5
  br label %32

; <label>:16:                                     ; preds = %11
  %17 = load i32, i32* %5, align 4, !tbaa !5
  %18 = sext i32 %17 to i64
  %19 = getelementptr inbounds [512 x i32], [512 x i32]* @B, i64 0, i64 %18
  %20 = load i32, i32* %19, align 4, !tbaa !5
  %21 = load i32, i32* %5, align 4, !tbaa !5
  %22 = sext i32 %21 to i64
  %23 = getelementptr inbounds [512 x i32], [512 x i32]* @C, i64 0, i64 %22
  %24 = load i32, i32* %23, align 4, !tbaa !5
  %25 = add nsw i32 %20, %24
  %26 = load i32, i32* %5, align 4, !tbaa !5
  %27 = sext i32 %26 to i64
  %28 = getelementptr inbounds [512 x i32], [512 x i32]* @A, i64 0, i64 %27
  store i32 %25, i32* %28, align 4, !tbaa !5
  br label %29

; <label>:29:                                     ; preds = %16
  %30 = load i32, i32* %5, align 4, !tbaa !5
  %31 = add nsw i32 %30, 1
  store i32 %31, i32* %5, align 4, !tbaa !5
  br label %11

; <label>:32:                                     ; preds = %14
  call void @pthread_exit(i8* null) #6
  unreachable
                                                  ; No predecessors!
  %34 = load i8*, i8** %2, align 8
  ret i8* %34
}

; Function Attrs: nounwind uwtable
define i32 @vecsum() #0 {
  %1 = alloca [2 x i64], align 16
  %2 = alloca %union.pthread_attr_t, align 8
  %3 = alloca %struct.cpu_set_t, align 8
  %4 = alloca i64, align 8
  %5 = alloca i64, align 8
  %6 = alloca i32*, align 8
  %7 = alloca i32*, align 8
  %8 = bitcast [2 x i64]* %1 to i8*
  call void @llvm.lifetime.start(i64 16, i8* %8) #5
  %9 = bitcast %union.pthread_attr_t* %2 to i8*
  call void @llvm.lifetime.start(i64 56, i8* %9) #5
  %10 = call i32 @pthread_attr_init(%union.pthread_attr_t* %2) #5
  %11 = bitcast %struct.cpu_set_t* %3 to i8*
  call void @llvm.lifetime.start(i64 128, i8* %11) #5
  br label %12

; <label>:12:                                     ; preds = %0
  %13 = bitcast %struct.cpu_set_t* %3 to i8*
  call void @llvm.memset.p0i8.i64(i8* %13, i8 0, i64 128, i32 8, i1 false)
  br label %14

; <label>:14:                                     ; preds = %12
  br label %15

; <label>:15:                                     ; preds = %14
  %16 = bitcast i64* %4 to i8*
  call void @llvm.lifetime.start(i64 8, i8* %16) #5
  store i64 2, i64* %4, align 8, !tbaa !7
  %17 = load i64, i64* %4, align 8, !tbaa !7
  %18 = udiv i64 %17, 8
  %19 = icmp ult i64 %18, 128
  br i1 %19, label %20, label %31

; <label>:20:                                     ; preds = %15
  %21 = load i64, i64* %4, align 8, !tbaa !7
  %22 = urem i64 %21, 64
  %23 = shl i64 1, %22
  %24 = getelementptr inbounds %struct.cpu_set_t, %struct.cpu_set_t* %3, i32 0, i32 0
  %25 = getelementptr inbounds [16 x i64], [16 x i64]* %24, i32 0, i32 0
  %26 = load i64, i64* %4, align 8, !tbaa !7
  %27 = udiv i64 %26, 64
  %28 = getelementptr inbounds i64, i64* %25, i64 %27
  %29 = load i64, i64* %28, align 8, !tbaa !7
  %30 = or i64 %29, %23
  store i64 %30, i64* %28, align 8, !tbaa !7
  br label %32

; <label>:31:                                     ; preds = %15
  br label %32

; <label>:32:                                     ; preds = %31, %20
  %33 = phi i64 [ %30, %20 ], [ 0, %31 ]
  store i64 %33, i64* %5, align 8, !tbaa !7
  %34 = bitcast i64* %4 to i8*
  call void @llvm.lifetime.end(i64 8, i8* %34) #5
  %35 = load i64, i64* %5, align 8, !tbaa !7
  %36 = call i32 @sched_getcpu() #5
  %37 = call i32 (i8*, ...) @printf(i8* getelementptr inbounds ([14 x i8], [14 x i8]* @.str, i32 0, i32 0), i32 %36)
  %38 = bitcast i32** %6 to i8*
  call void @llvm.lifetime.start(i64 8, i8* %38) #5
  %39 = call noalias i8* @malloc(i64 4) #5
  %40 = bitcast i8* %39 to i32*
  store i32* %40, i32** %6, align 8, !tbaa !1
  %41 = bitcast i32** %7 to i8*
  call void @llvm.lifetime.start(i64 8, i8* %41) #5
  %42 = call noalias i8* @malloc(i64 4) #5
  %43 = bitcast i8* %42 to i32*
  store i32* %43, i32** %7, align 8, !tbaa !1
  %44 = load i32*, i32** %6, align 8, !tbaa !1
  store i32 0, i32* %44, align 4, !tbaa !5
  %45 = load i32*, i32** %7, align 8, !tbaa !1
  store i32 256, i32* %45, align 4, !tbaa !5
  %46 = call i32 (i8*, ...) @printf(i8* getelementptr inbounds ([19 x i8], [19 x i8]* @.str.1, i32 0, i32 0))
  %47 = getelementptr inbounds [2 x i64], [2 x i64]* %1, i64 0, i64 0
  %48 = load i32*, i32** %6, align 8, !tbaa !1
  %49 = bitcast i32* %48 to i8*
  %50 = call i32 @pthread_create(i64* %47, %union.pthread_attr_t* %2, i8* (i8*)* @Thread_Call0, i8* %49) #5
  %51 = call i32 (i8*, ...) @printf(i8* getelementptr inbounds ([19 x i8], [19 x i8]* @.str.2, i32 0, i32 0))
  %52 = getelementptr inbounds [2 x i64], [2 x i64]* %1, i64 0, i64 1
  %53 = load i32*, i32** %7, align 8, !tbaa !1
  %54 = bitcast i32* %53 to i8*
  %55 = call i32 @pthread_create(i64* %52, %union.pthread_attr_t* %2, i8* (i8*)* @Thread_Call1, i8* %54) #5
  %56 = getelementptr inbounds [2 x i64], [2 x i64]* %1, i64 0, i64 0
  %57 = load i64, i64* %56, align 16, !tbaa !7
  %58 = call i32 @pthread_join(i64 %57, i8** null)
  %59 = getelementptr inbounds [2 x i64], [2 x i64]* %1, i64 0, i64 1
  %60 = load i64, i64* %59, align 8, !tbaa !7
  %61 = call i32 @pthread_join(i64 %60, i8** null)
  %62 = load i32, i32* getelementptr inbounds ([512 x i32], [512 x i32]* @A, i64 0, i64 0), align 16, !tbaa !5
  %63 = load i32, i32* getelementptr inbounds ([512 x i32], [512 x i32]* @A, i64 0, i64 256), align 16, !tbaa !5
  %64 = add nsw i32 %62, %63
  %65 = load i32, i32* getelementptr inbounds ([512 x i32], [512 x i32]* @A, i64 0, i64 511), align 4, !tbaa !5
  %66 = add nsw i32 %64, %65
  %67 = call i32 (i8*, ...) @printf(i8* getelementptr inbounds ([13 x i8], [13 x i8]* @.str.3, i32 0, i32 0), i32 %66)
  %68 = load i32, i32* getelementptr inbounds ([512 x i32], [512 x i32]* @A, i64 0, i64 0), align 16, !tbaa !5
  %69 = load i32, i32* getelementptr inbounds ([512 x i32], [512 x i32]* @A, i64 0, i64 256), align 16, !tbaa !5
  %70 = add nsw i32 %68, %69
  %71 = load i32, i32* getelementptr inbounds ([512 x i32], [512 x i32]* @A, i64 0, i64 511), align 4, !tbaa !5
  %72 = add nsw i32 %70, %71
  %73 = bitcast i32** %7 to i8*
  call void @llvm.lifetime.end(i64 8, i8* %73) #5
  %74 = bitcast i32** %6 to i8*
  call void @llvm.lifetime.end(i64 8, i8* %74) #5
  %75 = bitcast %struct.cpu_set_t* %3 to i8*
  call void @llvm.lifetime.end(i64 128, i8* %75) #5
  %76 = bitcast %union.pthread_attr_t* %2 to i8*
  call void @llvm.lifetime.end(i64 56, i8* %76) #5
  %77 = bitcast [2 x i64]* %1 to i8*
  call void @llvm.lifetime.end(i64 16, i8* %77) #5
  ret i32 %72
}

; Function Attrs: nounwind
declare i32 @pthread_attr_init(%union.pthread_attr_t*) #3

; Function Attrs: argmemonly nounwind
declare void @llvm.memset.p0i8.i64(i8* nocapture writeonly, i8, i64, i32, i1) #1

declare i32 @printf(i8*, ...) #4

; Function Attrs: nounwind
declare i32 @sched_getcpu() #3

; Function Attrs: nounwind
declare noalias i8* @malloc(i64) #3

; Function Attrs: nounwind
declare i32 @pthread_create(i64*, %union.pthread_attr_t*, i8* (i8*)*, i8*) #3

declare i32 @pthread_join(i64, i8**) #4

attributes #0 = { nounwind uwtable "correctly-rounded-divide-sqrt-fp-math"="false" "disable-tail-calls"="false" "less-precise-fpmad"="false" "no-frame-pointer-elim"="false" "no-infs-fp-math"="false" "no-jump-tables"="false" "no-nans-fp-math"="false" "no-signed-zeros-fp-math"="false" "no-trapping-math"="false" "stack-protector-buffer-size"="8" "target-cpu"="knl" "target-features"="+adx,+aes,+avx,+avx2,+avx512cd,+avx512er,+avx512f,+avx512pf,+bmi,+bmi2,+cx16,+f16c,+fma,+fsgsbase,+fxsr,+lzcnt,+mmx,+movbe,+pclmul,+popcnt,+prefetchwt1,+rdrnd,+rdseed,+rtm,+sse,+sse2,+sse3,+sse4.1,+sse4.2,+ssse3,+x87,+xsave,+xsaveopt" "unsafe-fp-math"="false" "use-soft-float"="false" }
attributes #1 = { argmemonly nounwind }
attributes #2 = { noreturn "correctly-rounded-divide-sqrt-fp-math"="false" "disable-tail-calls"="false" "less-precise-fpmad"="false" "no-frame-pointer-elim"="false" "no-infs-fp-math"="false" "no-nans-fp-math"="false" "no-signed-zeros-fp-math"="false" "no-trapping-math"="false" "stack-protector-buffer-size"="8" "target-cpu"="knl" "target-features"="+adx,+aes,+avx,+avx2,+avx512cd,+avx512er,+avx512f,+avx512pf,+bmi,+bmi2,+cx16,+f16c,+fma,+fsgsbase,+fxsr,+lzcnt,+mmx,+movbe,+pclmul,+popcnt,+prefetchwt1,+rdrnd,+rdseed,+rtm,+sse,+sse2,+sse3,+sse4.1,+sse4.2,+ssse3,+x87,+xsave,+xsaveopt" "unsafe-fp-math"="false" "use-soft-float"="false" }
attributes #3 = { nounwind "correctly-rounded-divide-sqrt-fp-math"="false" "disable-tail-calls"="false" "less-precise-fpmad"="false" "no-frame-pointer-elim"="false" "no-infs-fp-math"="false" "no-nans-fp-math"="false" "no-signed-zeros-fp-math"="false" "no-trapping-math"="false" "stack-protector-buffer-size"="8" "target-cpu"="knl" "target-features"="+adx,+aes,+avx,+avx2,+avx512cd,+avx512er,+avx512f,+avx512pf,+bmi,+bmi2,+cx16,+f16c,+fma,+fsgsbase,+fxsr,+lzcnt,+mmx,+movbe,+pclmul,+popcnt,+prefetchwt1,+rdrnd,+rdseed,+rtm,+sse,+sse2,+sse3,+sse4.1,+sse4.2,+ssse3,+x87,+xsave,+xsaveopt" "unsafe-fp-math"="false" "use-soft-float"="false" }
attributes #4 = { "correctly-rounded-divide-sqrt-fp-math"="false" "disable-tail-calls"="false" "less-precise-fpmad"="false" "no-frame-pointer-elim"="false" "no-infs-fp-math"="false" "no-nans-fp-math"="false" "no-signed-zeros-fp-math"="false" "no-trapping-math"="false" "stack-protector-buffer-size"="8" "target-cpu"="knl" "target-features"="+adx,+aes,+avx,+avx2,+avx512cd,+avx512er,+avx512f,+avx512pf,+bmi,+bmi2,+cx16,+f16c,+fma,+fsgsbase,+fxsr,+lzcnt,+mmx,+movbe,+pclmul,+popcnt,+prefetchwt1,+rdrnd,+rdseed,+rtm,+sse,+sse2,+sse3,+sse4.1,+sse4.2,+ssse3,+x87,+xsave,+xsaveopt" "unsafe-fp-math"="false" "use-soft-float"="false" }
attributes #5 = { nounwind }
attributes #6 = { noreturn }

!llvm.ident = !{!0}

!0 = !{!"clang version 4.0.1-10 (tags/RELEASE_401/final)"}
!1 = !{!2, !2, i64 0}
!2 = !{!"any pointer", !3, i64 0}
!3 = !{!"omnipotent char", !4, i64 0}
!4 = !{!"Simple C/C++ TBAA"}
!5 = !{!6, !6, i64 0}
!6 = !{!"int", !3, i64 0}
!7 = !{!8, !8, i64 0}
!8 = !{!"long", !3, i64 0}
